{
    "/js/indicadores/app.js": "/js/indicadores/app.js?id=e1f4cfd62e73310d4720",
    "/js/indicadores/app.js.map": "/js/indicadores/app.js.map?id=8d8ae6f8481be748573d",
    "/js/jobs/JobsAssign.js": "/js/jobs/JobsAssign.js?id=4dc1179fec535aaa2565",
    "/js/jobs/JobsAssign.js.map": "/js/jobs/JobsAssign.js.map?id=84d80b51b07dfd46dbb3",
    "/js/jobs/app.js": "/js/jobs/app.js?id=0007cc9901adef52e23c",
    "/js/jobs/app.js.map": "/js/jobs/app.js.map?id=b5c53f4a712fe89e53bf",
    "/js/jobs/asignados/app.js": "/js/jobs/asignados/app.js?id=9e96f10422e8817251b7",
    "/js/jobs/asignados/app.js.map": "/js/jobs/asignados/app.js.map?id=26d7d686352c95518f88",
    "/js/login/app.js": "/js/login/app.js?id=f2c4e00e6b13f7729b16",
    "/js/login/app.js.map": "/js/login/app.js.map?id=359b62388c79d31d0545",
    "/js/operadores/app.js": "/js/operadores/app.js?id=67daf635e0a08efce1a7",
    "/js/operadores/app.js.map": "/js/operadores/app.js.map?id=1cd0b76ec065ac60dbde",
    "/js/schedule/app.js": "/js/schedule/app.js?id=ec172d2a9fe7f48a14c5",
    "/js/schedule/app.js.map": "/js/schedule/app.js.map?id=6c9c2be4c2a07587f168",
    "/js/solicitudes_control/app.js": "/js/solicitudes_control/app.js?id=f79c921e8c17e5802756",
    "/js/solicitudes_control/app.js.map": "/js/solicitudes_control/app.js.map?id=fbe7c600c9ee6ccc7f8b"
}
